{"componentChunkName":"component---packages-blog-core-src-templates-collection-tag-js","path":"/tag/tutorial/page/2/","result":{"data":{"collectionInfo":{"id":"678d3902-8559-5594-8ba0-517d5c1934a5","name":"#tutorial","slug":"/tag/tutorial/"},"posts":{"nodes":[{"__typename":"MdxArticleProxy","id":"a5231fcf-db0a-5f29-b7f1-588a8d56a536","title":"Top 10 Cafes in Los Angeles","slug":"/top-10-cafes-in-los-angeles/","link":null,"excerpt":"Primo in altis pelle alumnae Lorem markdownum obvius in seque opus, est bicorni forte; laeva…","timeToRead":1,"featured":true,"thumbnailText":null,"date":"March 25, 2019","category":{"__typename":"CategoriesJson","id":"28f1127d-f364-5e0a-b0af-3c025b162bd7","name":"Food & Drink","slug":"/category/food-and-drink/","color":null,"icon":"/static/826b3f3a0f807861ed45b94e6a95fbc7/food-icon.svg"},"author":{"__typename":"AuthorsJson","id":"ccbe9e8c-0bd0-5128-b006-904980058dd5","name":"Sarah Doe","slug":"/author/sarah-doe/","title":"Internet Marketer","description":"Sed commodo, est quis maximus fermentum, massa ipsum euismod neque, in varius risus tellus quis lacus. Sed ac bibendum odio.","skills":["Marketing","Google Adwords","Story Telling"],"social":[{"name":"Instagram","url":"https://instagram.com/instagram"},{"name":"Twitter","url":"https://twitter.com/twitter"},{"name":"Website","url":"https://example.com"}],"thumbnail":{"__typename":"ImageSharp","regular":{"width":150,"height":150,"src":"/static/87de5bfbd74cc446592cf783a2ed157f/97df7/sarah-doe.png","srcSet":"/static/87de5bfbd74cc446592cf783a2ed157f/97df7/sarah-doe.png 1x,\n/static/87de5bfbd74cc446592cf783a2ed157f/81b80/sarah-doe.png 1.5x,\n/static/87de5bfbd74cc446592cf783a2ed157f/bb938/sarah-doe.png 2x"}}},"thumbnail":{"__typename":"ImageSharp","vertical":{"src":"/static/a381cbe123484c239b97a005d5ce4a00/8f7be/image.jpg","srcSet":"/static/a381cbe123484c239b97a005d5ce4a00/8f7be/image.jpg 1x,\n/static/a381cbe123484c239b97a005d5ce4a00/1af80/image.jpg 1.5x,\n/static/a381cbe123484c239b97a005d5ce4a00/1acf6/image.jpg 2x","srcWebp":"/static/a381cbe123484c239b97a005d5ce4a00/03323/image.webp","srcSetWebp":"/static/a381cbe123484c239b97a005d5ce4a00/03323/image.webp 1x,\n/static/a381cbe123484c239b97a005d5ce4a00/c8e9c/image.webp 1.5x,\n/static/a381cbe123484c239b97a005d5ce4a00/e7f4c/image.webp 2x","width":380,"height":290},"hero":{"src":"/static/a381cbe123484c239b97a005d5ce4a00/a8483/image.jpg","srcSet":"/static/a381cbe123484c239b97a005d5ce4a00/a8483/image.jpg 1x","srcWebp":"/static/a381cbe123484c239b97a005d5ce4a00/7330c/image.webp","srcSetWebp":"/static/a381cbe123484c239b97a005d5ce4a00/7330c/image.webp 1x","width":1600,"height":650}}},{"__typename":"MdxArticleProxy","id":"a5f5cc1f-96f4-52b8-a5a3-b193ecea0f0d","title":"I Went To Seattle With No Clothes The Empty Suitcase Show","slug":"/i-went-to-seattle-with-no-clothes-the-empty-suitcase-show/","link":null,"excerpt":"Primo in altis pelle alumnae Lorem markdownum obvius in seque opus, est bicorni forte; laeva…","timeToRead":1,"featured":true,"thumbnailText":null,"date":"January 18, 2019","category":{"__typename":"CategoriesJson","id":"c4f6e2ec-af65-5760-b6a1-7d828931d454","name":"Fashion & Beauty","slug":"/category/fashion-and-beauty/","color":null,"icon":"/static/e752203f588acb4139fdc10837322a63/fashion-icon.svg"},"author":{"__typename":"AuthorsJson","id":"da177f02-39ba-50d5-b38d-718400d3bca6","name":"John Doe","slug":"/author/john-doe/","title":"Web Developer","description":"Sed commodo, est quis maximus fermentum, massa ipsum euismod neque, in varius risus tellus quis lacus. Sed ac bibendum odio.","skills":["ASP.NET","Assembly","JavaScript"],"social":[{"name":"Instagram","url":"https://instagram.com/instagram"},{"name":"Twitter","url":"https://twitter.com/twitter"},{"name":"Website","url":"https://example.com"}],"thumbnail":{"__typename":"ImageSharp","regular":{"width":150,"height":150,"src":"/static/011b3215b6b7e782f02d67aebfa4c319/97df7/john-doe.png","srcSet":"/static/011b3215b6b7e782f02d67aebfa4c319/97df7/john-doe.png 1x,\n/static/011b3215b6b7e782f02d67aebfa4c319/81b80/john-doe.png 1.5x,\n/static/011b3215b6b7e782f02d67aebfa4c319/bb938/john-doe.png 2x"}}},"thumbnail":{"__typename":"ImageSharp","vertical":{"src":"/static/a381cbe123484c239b97a005d5ce4a00/8f7be/image.jpg","srcSet":"/static/a381cbe123484c239b97a005d5ce4a00/8f7be/image.jpg 1x,\n/static/a381cbe123484c239b97a005d5ce4a00/1af80/image.jpg 1.5x,\n/static/a381cbe123484c239b97a005d5ce4a00/1acf6/image.jpg 2x","srcWebp":"/static/a381cbe123484c239b97a005d5ce4a00/03323/image.webp","srcSetWebp":"/static/a381cbe123484c239b97a005d5ce4a00/03323/image.webp 1x,\n/static/a381cbe123484c239b97a005d5ce4a00/c8e9c/image.webp 1.5x,\n/static/a381cbe123484c239b97a005d5ce4a00/e7f4c/image.webp 2x","width":380,"height":290},"hero":{"src":"/static/a381cbe123484c239b97a005d5ce4a00/a8483/image.jpg","srcSet":"/static/a381cbe123484c239b97a005d5ce4a00/a8483/image.jpg 1x","srcWebp":"/static/a381cbe123484c239b97a005d5ce4a00/7330c/image.webp","srcSetWebp":"/static/a381cbe123484c239b97a005d5ce4a00/7330c/image.webp 1x","width":1600,"height":650}}}],"pageInfo":{"pageCount":2,"hasPreviousPage":true,"hasNextPage":false,"currentPage":2},"totalCount":8}},"pageContext":{"slug":"/tag/tutorial/","limit":6,"skip":6,"collectionType":"tags","paginatePostsPage":true,"basePath":"/","services":{"algolia":false,"mailchimp":false,"disqus":false},"siteUrl":null,"mobileMenu":{"title":"Topics","items":[{"name":"Art & Culture","slug":"/category/art-and-culture/"},{"name":"Fashion & Beauty","slug":"/category/fashion-and-beauty/"},{"name":"Food & Drink","slug":"/category/food-and-drink/"}]}}},"staticQueryHashes":["3784278707","620128445","620128445"]}