{"componentChunkName":"component---packages-blog-core-src-templates-collection-category-js","path":"/category/art-and-culture/page/2/","result":{"data":{"collectionInfo":{"__typename":"CategoriesJson","id":"b7befaa3-1a13-5674-8327-c4b36f0f6603","name":"Art & Culture","slug":"/category/art-and-culture/","description":"Bell had heard a signal (light) that had never previously existed within the auditory realm."},"posts":{"nodes":[{"__typename":"MdxArticleProxy","id":"53f2cef2-af65-513f-9b84-83dd8cebc09a","title":"Long-Lasting Fashion Items That Are Worth The Investment","slug":"/long-lasting-fashion-items-that-are-worth-the-investment/","link":null,"excerpt":"Primo in altis pelle alumnae Lorem markdownum obvius in seque opus, est bicorni forte; laeva…","timeToRead":1,"featured":true,"thumbnailText":null,"date":"March 19, 2019","category":{"__typename":"CategoriesJson","id":"b7befaa3-1a13-5674-8327-c4b36f0f6603","name":"Art & Culture","slug":"/category/art-and-culture/","color":null,"icon":"/static/49d5cf394fc18ca373866e46b1fd80ef/art-icon.svg"},"author":{"__typename":"AuthorsJson","id":"ccbe9e8c-0bd0-5128-b006-904980058dd5","name":"Sarah Doe","slug":"/author/sarah-doe/","title":"Internet Marketer","description":"Sed commodo, est quis maximus fermentum, massa ipsum euismod neque, in varius risus tellus quis lacus. Sed ac bibendum odio.","skills":["Marketing","Google Adwords","Story Telling"],"social":[{"name":"Instagram","url":"https://instagram.com/instagram"},{"name":"Twitter","url":"https://twitter.com/twitter"},{"name":"Website","url":"https://example.com"}],"thumbnail":{"__typename":"ImageSharp","regular":{"width":150,"height":150,"src":"/static/87de5bfbd74cc446592cf783a2ed157f/97df7/sarah-doe.png","srcSet":"/static/87de5bfbd74cc446592cf783a2ed157f/97df7/sarah-doe.png 1x,\n/static/87de5bfbd74cc446592cf783a2ed157f/81b80/sarah-doe.png 1.5x,\n/static/87de5bfbd74cc446592cf783a2ed157f/bb938/sarah-doe.png 2x"}}},"thumbnail":{"__typename":"ImageSharp","vertical":{"src":"/static/a381cbe123484c239b97a005d5ce4a00/8f7be/image.jpg","srcSet":"/static/a381cbe123484c239b97a005d5ce4a00/8f7be/image.jpg 1x,\n/static/a381cbe123484c239b97a005d5ce4a00/1af80/image.jpg 1.5x,\n/static/a381cbe123484c239b97a005d5ce4a00/1acf6/image.jpg 2x","srcWebp":"/static/a381cbe123484c239b97a005d5ce4a00/03323/image.webp","srcSetWebp":"/static/a381cbe123484c239b97a005d5ce4a00/03323/image.webp 1x,\n/static/a381cbe123484c239b97a005d5ce4a00/c8e9c/image.webp 1.5x,\n/static/a381cbe123484c239b97a005d5ce4a00/e7f4c/image.webp 2x","width":380,"height":290},"hero":{"src":"/static/a381cbe123484c239b97a005d5ce4a00/a8483/image.jpg","srcSet":"/static/a381cbe123484c239b97a005d5ce4a00/a8483/image.jpg 1x","srcWebp":"/static/a381cbe123484c239b97a005d5ce4a00/7330c/image.webp","srcSetWebp":"/static/a381cbe123484c239b97a005d5ce4a00/7330c/image.webp 1x","width":1600,"height":650}}},{"__typename":"MdxArticleProxy","id":"e7d743c8-09dd-53d0-b4fd-4bea124e90e8","title":"20 Creative Pasta Recipes You'll Probably Want To Whip Up ASAP","slug":"/20-creative-pasta-recipes-youll-probably-want-to-whip-up-asap/","link":null,"excerpt":"Primo in altis pelle alumnae Lorem markdownum obvius in seque opus, est bicorni forte; laeva…","timeToRead":1,"featured":true,"thumbnailText":null,"date":"March 11, 2019","category":{"__typename":"CategoriesJson","id":"b7befaa3-1a13-5674-8327-c4b36f0f6603","name":"Art & Culture","slug":"/category/art-and-culture/","color":null,"icon":"/static/49d5cf394fc18ca373866e46b1fd80ef/art-icon.svg"},"author":{"__typename":"AuthorsJson","id":"ccbe9e8c-0bd0-5128-b006-904980058dd5","name":"Sarah Doe","slug":"/author/sarah-doe/","title":"Internet Marketer","description":"Sed commodo, est quis maximus fermentum, massa ipsum euismod neque, in varius risus tellus quis lacus. Sed ac bibendum odio.","skills":["Marketing","Google Adwords","Story Telling"],"social":[{"name":"Instagram","url":"https://instagram.com/instagram"},{"name":"Twitter","url":"https://twitter.com/twitter"},{"name":"Website","url":"https://example.com"}],"thumbnail":{"__typename":"ImageSharp","regular":{"width":150,"height":150,"src":"/static/87de5bfbd74cc446592cf783a2ed157f/97df7/sarah-doe.png","srcSet":"/static/87de5bfbd74cc446592cf783a2ed157f/97df7/sarah-doe.png 1x,\n/static/87de5bfbd74cc446592cf783a2ed157f/81b80/sarah-doe.png 1.5x,\n/static/87de5bfbd74cc446592cf783a2ed157f/bb938/sarah-doe.png 2x"}}},"thumbnail":{"__typename":"ImageSharp","vertical":{"src":"/static/a381cbe123484c239b97a005d5ce4a00/8f7be/image.jpg","srcSet":"/static/a381cbe123484c239b97a005d5ce4a00/8f7be/image.jpg 1x,\n/static/a381cbe123484c239b97a005d5ce4a00/1af80/image.jpg 1.5x,\n/static/a381cbe123484c239b97a005d5ce4a00/1acf6/image.jpg 2x","srcWebp":"/static/a381cbe123484c239b97a005d5ce4a00/03323/image.webp","srcSetWebp":"/static/a381cbe123484c239b97a005d5ce4a00/03323/image.webp 1x,\n/static/a381cbe123484c239b97a005d5ce4a00/c8e9c/image.webp 1.5x,\n/static/a381cbe123484c239b97a005d5ce4a00/e7f4c/image.webp 2x","width":380,"height":290},"hero":{"src":"/static/a381cbe123484c239b97a005d5ce4a00/a8483/image.jpg","srcSet":"/static/a381cbe123484c239b97a005d5ce4a00/a8483/image.jpg 1x","srcWebp":"/static/a381cbe123484c239b97a005d5ce4a00/7330c/image.webp","srcSetWebp":"/static/a381cbe123484c239b97a005d5ce4a00/7330c/image.webp 1x","width":1600,"height":650}}}],"pageInfo":{"pageCount":2,"hasPreviousPage":true,"hasNextPage":false,"currentPage":2},"totalCount":8}},"pageContext":{"slug":"/category/art-and-culture/","limit":6,"skip":6,"collectionType":"category","paginatePostsPage":true,"basePath":"/","services":{"algolia":false,"mailchimp":false,"disqus":false},"siteUrl":null,"mobileMenu":{"title":"Topics","items":[{"name":"Art & Culture","slug":"/category/art-and-culture/"},{"name":"Fashion & Beauty","slug":"/category/fashion-and-beauty/"},{"name":"Food & Drink","slug":"/category/food-and-drink/"}]}}},"staticQueryHashes":["3784278707","620128445","620128445"]}